{
  "requestId": 34582764723647,
  "errorMessage": null,
  "errorCode": null,
  "success": true,
  "value": {
    "project_name": "X-Order",
    "project_status": true,
    "project_start": "03-08-2018",
    "project_end": "28-02-2019",
    "members": 8,
    "project_type": [
      {
        "project_id": "LOG",
        "project_name": "LOGISTIC"
      }
    ],
    "recommendations": [
      {
        "id": "d290f1ee-6c54-4b01-90e6-d701748f0851",
        "img": "/img/icons/apple-touch-icon.png",
        "name": "Raditia Madya",
        "employement": 1,
        "personality": "ESTJ",
        "email": "gusti.madya@gdn-commerce.com",
        "status": 1,
        "records": {
          "records_id": "d290f1ee-6c54-4b01-90e6-d701748f0851",
          "records_domain_score": 5,
          "records_technical_score": 5,
          "project_history": [
            {
              "project_id": "LOG",
              "project_name": "LOGISTIC",
              "reviews": {
                "responsibility": 4,
                "communication": 4,
                "team_work": 3,
                "problem_solving": 5,
                "leadership": 4,
                "personality": 4,
                "domain": 4,
                "technical": 3
              }
            }
          ]
        },
        "role": "Front-end developer"
      },
      {
        "id": "d290f1ee-6c54-4b01-90e6-d701748f0852",
        "img": "/img/icons/apple-touch-icon.png",
        "name": "Raditia Madya",
        "employement": 1,
        "personality": "ESTJ",
        "email": "gusti.madya@gdn-commerce.com",
        "status": 0,
        "records": {
          "records_id": "d290f1ee-6c54-4b01-90e6-d701748f0852",
          "records_domain_score": 5,
          "records_technical_score": 5,
          "project_history": [
            {
              "project_id": "LOG",
              "project_name": "LOGISTIC",
              "reviews": {
                "responsibility": 4,
                "communication": 4,
                "team_work": 3,
                "problem_solving": 5,
                "leadership": 4,
                "personality": 4,
                "domain": 4,
                "technical": 3
              }
            }
          ]
        },
        "role": "Front-end developer"
      }
    ]
  }
}